10 day old seedlings	AT_D19_C1_J18_T15_KAN1
12 day old seedlings	AT_D22_C2_J25_T23_REF6,AT_D47_C2_J20_T25_WRKY18,AT_D48_C2_J20_T25_WRKY18,AT_D50_C2_J20_T25_WRKY18,AT_D46_C2_J23_T26_WRKY33,AT_D49_C2_J21_T27_WRKY40,AT_D51_C2_J21_T27_WRKY40
14 day old seedling	AT_D26_C3_J17_T9_CCA1,AT_D27_C3_J17_T9_CCA1,AT_D9_C3_J9_T22_PIF5,AT_D52_C3_J25_T23_REF6,AT_D53_C3_J25_T23_REF6,AT_D54_C3_J25_T23_REF6
2 day old seedlings	AT_D12_C4_J7_T20_PIF3
3 day old seedlings	AT_D44_C5_J11_T1_ABF1,AT_D45_C5_J11_T1_ABF1,AT_D28_C5_J13_T2_ABF3,AT_D29_C5_J13_T2_ABF3,AT_D30_C5_J26_T3_ABF4,AT_D31_C5_J26_T3_ABF4,AT_D34_C5_J2_T7_ATHB-5,AT_D35_C5_J2_T7_ATHB-5,AT_D32_C5_J16_T8_ATHB7,AT_D33_C5_J16_T8_ATHB7,AT_D40_C5_J27_T11_GBF2,AT_D41_C5_J27_T11_GBF2,AT_D42_C5_J24_T12_GBF3,AT_D43_C5_J24_T12_GBF3,AT_D38_C5_J22_T13_HAT22,AT_D39_C5_J22_T13_HAT22,AT_D36_C5_J19_T17_MYB3,AT_D37_C5_J19_T17_MYB3,AT_D13_C5_J4_T19_PIF1,AT_D14_C5_J4_T19_PIF1,AT_D15_C5_J8_T21_PIF4
4 day old seedlings	AT_D8_C6_J5_T10_FHY3
4 week old mature leaves	AT_D23_C7_J23_T26_WRKY33
5 day old seedlings	AT_D24_C8_J8_T21_PIF4,AT_D25_C8_J9_T22_PIF5
apical meristems	AT_D4_C9_J14_T5_AP1,AT_D5_C9_J14_T5_AP1
complete 15 day-old seedlings	AT_D6_C10_J12_T16_LFY,AT_D7_C10_J12_T16_LFY,AT_D20_C10_J12_T16_LFY,AT_D21_C10_J12_T16_LFY
complete seedlings	AT_D10_C11_J8_T21_PIF4
floral tissue	AT_D11_C12_J6_T18_PI
flowers 5-week-old plants	AT_D58_C13_J25_T23_REF6,AT_D59_C13_J25_T23_REF6
inflorescence	AT_D16_C14_J1_T4_AG,AT_D17_C14_J10_T24_SEP3,AT_D18_C14_J10_T24_SEP3
inflorescence meristems and floral buds-5-7 weeks	AT_D1_C15_J10_T24_SEP3,AT_D2_C15_J10_T24_SEP3,AT_D3_C15_J10_T24_SEP3
whole 3 days seedings	AT_D57_C16_J15_T6_ARR14
whole plants	AT_D55_C17_J3_T14_HY5,AT_D56_C17_J3_T14_HY5
