BCD	DM_D43_C2_J3_T1_BCD
BEAF-32	DM_D2_C21_J8_T2_BEAF-32,DM_D17_C14_J8_T2_BEAF-32,DM_D18_C14_J8_T2_BEAF-32,DM_D19_C14_J8_T2_BEAF-32,DM_D23_C14_J8_T2_BEAF-32,DM_D24_C14_J8_T2_BEAF-32,DM_D25_C1_J8_T2_BEAF-32,DM_D42_C16_J8_T2_BEAF-32,DM_D46_C14_J8_T2_BEAF-32,DM_D47_C14_J8_T2_BEAF-32
CLAMP	DM_D5_C16_J15_T3_CLAMP,DM_D27_C14_J15_T3_CLAMP,DM_D28_C17_J15_T3_CLAMP,DM_D29_C17_J15_T3_CLAMP,DM_D65_C20_J15_T3_CLAMP,DM_D67_C20_J15_T3_CLAMP,DM_D68_C20_J15_T3_CLAMP,DM_D69_C15_J15_T3_CLAMP,DM_D70_C15_J15_T3_CLAMP,DM_D71_C15_J15_T3_CLAMP,DM_D72_C15_J15_T3_CLAMP,DM_D73_C15_J15_T3_CLAMP
CTCF	DM_D10_C18_J9_T4_CTCF,DM_D11_C22_J9_T4_CTCF,DM_D14_C14_J9_T4_CTCF,DM_D15_C14_J9_T4_CTCF,DM_D16_C14_J9_T4_CTCF,DM_D22_C14_J9_T4_CTCF,DM_D37_C18_J9_T4_CTCF,DM_D38_C18_J9_T4_CTCF,DM_D44_C23_J9_T4_CTCF,DM_D62_C21_J9_T4_CTCF
DREF	DM_D30_C14_J10_T5_DREF,DM_D48_C14_J10_T5_DREF,DM_D49_C14_J10_T5_DREF
FKH	DM_D3_C22_J5_T6_FKH
GRH	DM_D4_C4_J11_T7_GRH,DM_D57_C7_J11_T7_GRH,DM_D58_C9_J11_T7_GRH,DM_D59_C3_J11_T7_GRH,DM_D60_C5_J11_T7_GRH,DM_D61_C5_J11_T7_GRH
GT	DM_D39_C21_J6_T8_GT
HB	DM_D40_C21_J1_T9_HB
HSF	DM_D20_C16_J12_T10_HSF,DM_D21_C16_J12_T10_HSF
KR	DM_D41_C21_J7_T11_KR
M1BP	DM_D63_C19_J13_T12_M1BP
PDP1	DM_D1_C21_J16_T13_PDP1
PHO	DM_D45_C6_J14_T14_PHO,DM_D53_C11_J14_T14_PHO,DM_D54_C11_J14_T14_PHO,DM_D55_C11_J14_T14_PHO,DM_D66_C12_J14_T14_PHO
TRL	DM_D6_C16_J2_T15_TRL,DM_D7_C16_J2_T15_TRL,DM_D8_C21_J2_T15_TRL,DM_D9_C21_J2_T15_TRL,DM_D12_C1_J2_T15_TRL,DM_D13_C10_J2_T15_TRL,DM_D26_C24_J2_T15_TRL,DM_D31_C18_J2_T15_TRL,DM_D32_C18_J2_T15_TRL,DM_D50_C8_J2_T15_TRL,DM_D52_C13_J2_T15_TRL,DM_D56_C14_J2_T15_TRL,DM_D64_C14_J2_T15_TRL
TWI	DM_D33_C8_J4_T16_TWI,DM_D34_C8_J4_T16_TWI,DM_D35_C8_J4_T16_TWI,DM_D36_C8_J4_T16_TWI,DM_D51_C8_J4_T16_TWI
