BLMP-1	CE_D6_C2_J1_T1_BLMP-1,CE_D21_C3_J1_T1_BLMP-1
CEBP-1	CE_D34_C7_J11_T2_CEBP-1,CE_D51_C8_J11_T2_CEBP-1
CEH-28	CE_D19_C4_J12_T3_CEH-28,CE_D20_C5_J12_T3_CEH-28
CEH-48	CE_D24_C6_J9_T4_CEH-48
DAF-16	CE_D39_C5_J13_T5_DAF-16,CE_D46_C8_J13_T5_DAF-16,CE_D47_C8_J13_T5_DAF-16
DPY-27	CE_D42_C9_J2_T6_DPY-27,CE_D49_C1_J2_T6_DPY-27,CE_D50_C1_J2_T6_DPY-27,CE_D56_C9_J2_T6_DPY-27,CE_D57_C9_J2_T6_DPY-27,CE_D58_C9_J2_T6_DPY-27
EFL-1	CE_D4_C7_J3_T7_EFL-1,CE_D16_C7_J3_T7_EFL-1,CE_D26_C2_J3_T7_EFL-1,CE_D27_C2_J3_T7_EFL-1,CE_D30_C7_J3_T7_EFL-1,CE_D40_C7_J3_T7_EFL-1,CE_D52_C6_J3_T7_EFL-1,CE_D53_C6_J3_T7_EFL-1,CE_D54_C6_J3_T7_EFL-1
ELT-2	CE_D8_C6_J17_T8_ELT-2,CE_D18_C2_J17_T8_ELT-2,CE_D32_C4_J17_T8_ELT-2
ELT-3	CE_D5_C2_J4_T9_ELT-3,CE_D35_C2_J4_T9_ELT-3
FOS-1	CE_D12_C2_J14_T10_FOS-1,CE_D28_C3_J14_T10_FOS-1
HLH-30	CE_D3_C6_J15_T11_HLH-30,CE_D7_C5_J15_T11_HLH-30,CE_D11_C5_J15_T11_HLH-30,CE_D17_C6_J15_T11_HLH-30
LIN-54	CE_D48_C4_J16_T12_LIN-54,CE_D55_C6_J16_T12_LIN-54
PHA-4	CE_D10_C5_J6_T13_PHA-4,CE_D15_C9_J6_T13_PHA-4,CE_D25_C4_J6_T13_PHA-4,CE_D37_C1_J6_T13_PHA-4,CE_D38_C2_J6_T13_PHA-4,CE_D41_C2_J6_T13_PHA-4
PQM-1	CE_D14_C4_J18_T14_PQM-1,CE_D29_C4_J18_T14_PQM-1,CE_D33_C5_J18_T14_PQM-1
SKN-1	CE_D1_C2_J7_T15_SKN-1
SNPC-4	CE_D2_C7_J5_T16_SNPC-4,CE_D9_C4_J5_T16_SNPC-4,CE_D22_C3_J5_T16_SNPC-4,CE_D23_C2_J5_T16_SNPC-4,CE_D43_C5_J5_T16_SNPC-4,CE_D44_C10_J5_T16_SNPC-4,CE_D45_C11_J5_T16_SNPC-4,CE_D59_C4_J5_T16_SNPC-4
UNC-30	CE_D36_C3_J10_T17_UNC-30
UNC-62	CE_D31_C9_J8_T18_UNC-62
ZIP-8	CE_D13_C9_J19_T19_ZIP-8
