# total sequences,component sequences,cluster sequences,total ic,median window size,gini coefficient
35153.000000 14351.000000 420.000000 10.281989 4.000000 0.548225
35153.000000 11597.000000 336.000000 14.789018 7.000000 0.424429
35153.000000 9205.000000 13.000000 -2.000000 -2.000000 -2.000000
