# total sequences,component sequences,cluster sequences,total ic,median window size,gini coefficient
35153.000000 6116.000000 205.000000 8.622582 12.000000 0.333922
35153.000000 11626.000000 727.000000 10.608879 4.000000 0.573530
35153.000000 2746.000000 30.000000 -2.000000 -2.000000 -2.000000
35153.000000 11373.000000 882.000000 10.935178 4.000000 0.619239
35153.000000 3292.000000 20.000000 -2.000000 -2.000000 -2.000000
