example_analysis/results/nmf_motifs/example_CTCF_left/6_components/cobinder_pfm_1.txt	example_CTCF_left_6_components_cobinder_pfm_1	cluster-buster
example_analysis/results/nmf_motifs/example_CTCF_left/6_components/cobinder_pfm_3.txt	example_CTCF_left_6_components_cobinder_pfm_3	cluster-buster
example_analysis/results/nmf_motifs/example_CTCF_left/3_components/cobinder_pfm_0.txt	example_CTCF_left_3_components_cobinder_pfm_0	cluster-buster
example_analysis/results/nmf_motifs/example_CTCF_left/4_components/cobinder_pfm_2.txt	example_CTCF_left_4_components_cobinder_pfm_2	cluster-buster
example_analysis/results/nmf_motifs/example_CTCF_left/5_components/cobinder_pfm_1.txt	example_CTCF_left_5_components_cobinder_pfm_1	cluster-buster
example_analysis/results/nmf_motifs/example_CTCF_left/5_components/cobinder_pfm_3.txt	example_CTCF_left_5_components_cobinder_pfm_3	cluster-buster
example_analysis/results/nmf_motifs/example_CTCF_right/6_components/cobinder_pfm_0.txt	example_CTCF_right_6_components_cobinder_pfm_0	cluster-buster
